%!PS-Adobe-3.0 EPSF-3.0
%%Creator: MATLAB, The MathWorks, Inc. Version 8.1.0.604 (R2013a). Operating System: Linux 4.4.0-21-generic #37-Ubuntu SMP Mon Apr 18 18:33:37 UTC 2016 x86_64.
%%Title: /home/rajeevpnj/el7353finalproject/Persistent/persistentMatlab/newResultiperf3.eps
%%CreationDate: 06/12/2016  01:45:52
%%DocumentNeededFonts: Helvetica
%%DocumentProcessColors: Cyan Magenta Yellow Black
%%LanguageLevel: 2
%%Pages: 1
%%BoundingBox:   100   241   509   549
%%EndComments

%%BeginProlog
% MathWorks dictionary
/MathWorks 160 dict begin
% definition operators
/bdef {bind def} bind def
/ldef {load def} bind def
/xdef {exch def} bdef
/xstore {exch store} bdef
% operator abbreviations
/c  /clip ldef
/cc /concat ldef
/cp /closepath ldef
/gr /grestore ldef
/gs /gsave ldef
/mt /moveto ldef
/np /newpath ldef
/cm /currentmatrix ldef
/sm /setmatrix ldef
/rm /rmoveto ldef
/rl /rlineto ldef
/s {show newpath} bdef
/sc {setcmykcolor} bdef
/sr /setrgbcolor ldef
/sg /setgray ldef
/w /setlinewidth ldef
/j /setlinejoin ldef
/cap /setlinecap ldef
/rc {rectclip} bdef
/rf {rectfill} bdef
% page state control
/pgsv () def
/bpage {/pgsv save def} bdef
/epage {pgsv restore} bdef
/bplot /gsave ldef
/eplot {stroke grestore} bdef
% orientation switch
/portraitMode 0 def /landscapeMode 1 def /rotateMode 2 def
% coordinate system mappings
/dpi2point 0 def
% font control
/FontSize 0 def
/FMS {/FontSize xstore findfont [FontSize 0 0 FontSize neg 0 0]
  makefont setfont} bdef
/reencode {exch dup where {pop load} {pop StandardEncoding} ifelse
  exch dup 3 1 roll findfont dup length dict begin
  { 1 index /FID ne {def}{pop pop} ifelse } forall
  /Encoding exch def currentdict end definefont pop} bdef
/isroman {findfont /CharStrings get /Agrave known} bdef
/FMSR {3 1 roll 1 index dup isroman {reencode} {pop pop} ifelse
  exch FMS} bdef
/csm {1 dpi2point div -1 dpi2point div scale neg translate
 dup landscapeMode eq {pop -90 rotate}
  {rotateMode eq {90 rotate} if} ifelse} bdef
% line types: solid, dotted, dashed, dotdash
/SO { [] 0 setdash } bdef
/DO { [.5 dpi2point mul 4 dpi2point mul] 0 setdash } bdef
/DA { [6 dpi2point mul] 0 setdash } bdef
/DD { [.5 dpi2point mul 4 dpi2point mul 6 dpi2point mul 4
  dpi2point mul] 0 setdash } bdef
% macros for lines and objects
/L {lineto stroke} bdef
/MP {3 1 roll moveto 1 sub {rlineto} repeat} bdef
/AP {{rlineto} repeat} bdef
/PDlw -1 def
/W {/PDlw currentlinewidth def setlinewidth} def
/PP {closepath eofill} bdef
/DP {closepath stroke} bdef
/MR {4 -2 roll moveto dup  0 exch rlineto exch 0 rlineto
  neg 0 exch rlineto closepath} bdef
/FR {MR stroke} bdef
/PR {MR fill} bdef
/L1i {{currentfile picstr readhexstring pop} image} bdef
/tMatrix matrix def
/MakeOval {newpath tMatrix currentmatrix pop translate scale
0 0 1 0 360 arc tMatrix setmatrix} bdef
/FO {MakeOval stroke} bdef
/PO {MakeOval fill} bdef
/PD {currentlinewidth 2 div 0 360 arc fill
   PDlw -1 eq not {PDlw w /PDlw -1 def} if} def
/FA {newpath tMatrix currentmatrix pop translate scale
  0 0 1 5 -2 roll arc tMatrix setmatrix stroke} bdef
/PA {newpath tMatrix currentmatrix pop	translate 0 0 moveto scale
  0 0 1 5 -2 roll arc closepath tMatrix setmatrix fill} bdef
/FAn {newpath tMatrix currentmatrix pop translate scale
  0 0 1 5 -2 roll arcn tMatrix setmatrix stroke} bdef
/PAn {newpath tMatrix currentmatrix pop translate 0 0 moveto scale
  0 0 1 5 -2 roll arcn closepath tMatrix setmatrix fill} bdef
/vradius 0 def /hradius 0 def /lry 0 def
/lrx 0 def /uly 0 def /ulx 0 def /rad 0 def
/MRR {/vradius xdef /hradius xdef /lry xdef /lrx xdef /uly xdef
  /ulx xdef newpath tMatrix currentmatrix pop ulx hradius add uly
  vradius add translate hradius vradius scale 0 0 1 180 270 arc 
  tMatrix setmatrix lrx hradius sub uly vradius add translate
  hradius vradius scale 0 0 1 270 360 arc tMatrix setmatrix
  lrx hradius sub lry vradius sub translate hradius vradius scale
  0 0 1 0 90 arc tMatrix setmatrix ulx hradius add lry vradius sub
  translate hradius vradius scale 0 0 1 90 180 arc tMatrix setmatrix
  closepath} bdef
/FRR {MRR stroke } bdef
/PRR {MRR fill } bdef
/MlrRR {/lry xdef /lrx xdef /uly xdef /ulx xdef /rad lry uly sub 2 div def
  newpath tMatrix currentmatrix pop ulx rad add uly rad add translate
  rad rad scale 0 0 1 90 270 arc tMatrix setmatrix lrx rad sub lry rad
  sub translate rad rad scale 0 0 1 270 90 arc tMatrix setmatrix
  closepath} bdef
/FlrRR {MlrRR stroke } bdef
/PlrRR {MlrRR fill } bdef
/MtbRR {/lry xdef /lrx xdef /uly xdef /ulx xdef /rad lrx ulx sub 2 div def
  newpath tMatrix currentmatrix pop ulx rad add uly rad add translate
  rad rad scale 0 0 1 180 360 arc tMatrix setmatrix lrx rad sub lry rad
  sub translate rad rad scale 0 0 1 0 180 arc tMatrix setmatrix
  closepath} bdef
/FtbRR {MtbRR stroke } bdef
/PtbRR {MtbRR fill } bdef
/stri 6 array def /dtri 6 array def
/smat 6 array def /dmat 6 array def
/tmat1 6 array def /tmat2 6 array def /dif 3 array def
/asub {/ind2 exch def /ind1 exch def dup dup
  ind1 get exch ind2 get sub exch } bdef
/tri_to_matrix {
  2 0 asub 3 1 asub 4 0 asub 5 1 asub
  dup 0 get exch 1 get 7 -1 roll astore } bdef
/compute_transform {
  dmat dtri tri_to_matrix tmat1 invertmatrix 
  smat stri tri_to_matrix tmat2 concatmatrix } bdef
/ds {stri astore pop} bdef
/dt {dtri astore pop} bdef
/db {2 copy /cols xdef /rows xdef mul dup 3 mul string
  currentfile 
  3 index 0 eq {/ASCIIHexDecode filter}
  {/ASCII85Decode filter 3 index 2 eq {/RunLengthDecode filter} if }
  ifelse exch readstring pop
  dup 0 3 index getinterval /rbmap xdef
  dup 2 index dup getinterval /gbmap xdef
  1 index dup 2 mul exch getinterval /bbmap xdef pop pop}bdef
/it {gs np dtri aload pop moveto lineto lineto cp c
  cols rows 8 compute_transform 
  rbmap gbmap bbmap true 3 colorimage gr}bdef
/il {newpath moveto lineto stroke}bdef
currentdict end def
%%EndProlog

%%BeginSetup
MathWorks begin

0 cap

end
%%EndSetup

%%Page: 1 1
%%BeginPageSetup
%%PageBoundingBox:   100   241   509   549
MathWorks begin
bpage
%%EndPageSetup

%%BeginObject: obj1
bplot

/dpi2point 12 def
portraitMode 1200 6588 csm

    0     0  4915  3687 rc
85 dict begin %Colortable dictionary
/c0 { 0.000000 0.000000 0.000000 sr} bdef
/c1 { 1.000000 1.000000 1.000000 sr} bdef
/c2 { 0.900000 0.000000 0.000000 sr} bdef
/c3 { 0.000000 0.820000 0.000000 sr} bdef
/c4 { 0.000000 0.000000 0.800000 sr} bdef
/c5 { 0.910000 0.820000 0.320000 sr} bdef
/c6 { 1.000000 0.260000 0.820000 sr} bdef
/c7 { 0.000000 0.820000 0.820000 sr} bdef
c0
1 j
1 sg
   0    0 4916 3688 rf
6 w
0 3004 3809 0 0 -3004 639 3281 4 MP
PP
-3809 0 0 3004 3809 0 0 -3004 639 3281 5 MP stroke
4 w
DO
0 sg
 639 3281 mt  639  277 L
 639  277 mt  639  277 L
2543 3281 mt 2543  277 L
2543  277 mt 2543  277 L
4448 3281 mt 4448  277 L
4448  277 mt 4448  277 L
 639 3281 mt 4448 3281 L
4448 3281 mt 4448 3281 L
 639 2980 mt 4448 2980 L
4448 2980 mt 4448 2980 L
 639 2680 mt 4448 2680 L
4448 2680 mt 4448 2680 L
 639 2379 mt 4448 2379 L
4448 2379 mt 4448 2379 L
 639 2079 mt 4448 2079 L
4448 2079 mt 4448 2079 L
 639 1779 mt 4448 1779 L
4448 1779 mt 4448 1779 L
 639 1478 mt 4448 1478 L
4448 1478 mt 4448 1478 L
 639 1178 mt 4448 1178 L
4448 1178 mt 4448 1178 L
 639  877 mt 4448  877 L
4448  877 mt 4448  877 L
 639  577 mt 4448  577 L
4448  577 mt 4448  577 L
 639  277 mt 4448  277 L
4448  277 mt 4448  277 L
SO
6 w
 639 3281 mt 4448 3281 L
 639  277 mt 4448  277 L
 639 3281 mt  639  277 L
4448 3281 mt 4448  277 L
 639 3281 mt 4448 3281 L
 639 3281 mt  639  277 L
 639 3281 mt  639 3261 L
 639  277 mt  639  296 L
DO
 639 3281 mt  639  277 L
 639  277 mt  639  277 L
SO
 639 3281 mt  639 3242 L
 639  277 mt  639  315 L
%%IncludeResource: font Helvetica
/Helvetica /ISOLatin1Encoding 120 FMSR

 551 3463 mt 
(10) s
%%IncludeResource: font Helvetica
/Helvetica /ISOLatin1Encoding 80 FMSR

 684 3389 mt 
(3) s
1212 3281 mt 1212 3261 L
1212  277 mt 1212  296 L
DO
1212 3281 mt 1212  277 L
1212  277 mt 1212  277 L
SO
1547 3281 mt 1547 3261 L
1547  277 mt 1547  296 L
DO
1547 3281 mt 1547  277 L
1547  277 mt 1547  277 L
SO
1785 3281 mt 1785 3261 L
1785  277 mt 1785  296 L
DO
1785 3281 mt 1785  277 L
1785  277 mt 1785  277 L
SO
1970 3281 mt 1970 3261 L
1970  277 mt 1970  296 L
DO
1970 3281 mt 1970  277 L
1970  277 mt 1970  277 L
SO
2120 3281 mt 2120 3261 L
2120  277 mt 2120  296 L
DO
2120 3281 mt 2120  277 L
2120  277 mt 2120  277 L
SO
2248 3281 mt 2248 3261 L
2248  277 mt 2248  296 L
DO
2248 3281 mt 2248  277 L
2248  277 mt 2248  277 L
SO
2358 3281 mt 2358 3261 L
2358  277 mt 2358  296 L
DO
2358 3281 mt 2358  277 L
2358  277 mt 2358  277 L
SO
2456 3281 mt 2456 3261 L
2456  277 mt 2456  296 L
DO
2456 3281 mt 2456  277 L
2456  277 mt 2456  277 L
SO
2543 3281 mt 2543 3261 L
2543  277 mt 2543  296 L
DO
2543 3281 mt 2543  277 L
2543  277 mt 2543  277 L
SO
2543 3281 mt 2543 3242 L
2543  277 mt 2543  315 L
%%IncludeResource: font Helvetica
/Helvetica /ISOLatin1Encoding 120 FMSR

2455 3463 mt 
(10) s
%%IncludeResource: font Helvetica
/Helvetica /ISOLatin1Encoding 80 FMSR

2588 3389 mt 
(4) s
3116 3281 mt 3116 3261 L
3116  277 mt 3116  296 L
DO
3116 3281 mt 3116  277 L
3116  277 mt 3116  277 L
SO
3452 3281 mt 3452 3261 L
3452  277 mt 3452  296 L
DO
3452 3281 mt 3452  277 L
3452  277 mt 3452  277 L
SO
3690 3281 mt 3690 3261 L
3690  277 mt 3690  296 L
DO
3690 3281 mt 3690  277 L
3690  277 mt 3690  277 L
SO
3874 3281 mt 3874 3261 L
3874  277 mt 3874  296 L
DO
3874 3281 mt 3874  277 L
3874  277 mt 3874  277 L
SO
4025 3281 mt 4025 3261 L
4025  277 mt 4025  296 L
DO
4025 3281 mt 4025  277 L
4025  277 mt 4025  277 L
SO
4152 3281 mt 4152 3261 L
4152  277 mt 4152  296 L
DO
4152 3281 mt 4152  277 L
4152  277 mt 4152  277 L
SO
4263 3281 mt 4263 3261 L
4263  277 mt 4263  296 L
DO
4263 3281 mt 4263  277 L
4263  277 mt 4263  277 L
SO
4360 3281 mt 4360 3261 L
4360  277 mt 4360  296 L
DO
4360 3281 mt 4360  277 L
4360  277 mt 4360  277 L
SO
4448 3281 mt 4448 3261 L
4448  277 mt 4448  296 L
DO
4448 3281 mt 4448  277 L
4448  277 mt 4448  277 L
SO
4448 3281 mt 4448 3242 L
4448  277 mt 4448  315 L
%%IncludeResource: font Helvetica
/Helvetica /ISOLatin1Encoding 120 FMSR

4360 3463 mt 
(10) s
%%IncludeResource: font Helvetica
/Helvetica /ISOLatin1Encoding 80 FMSR

4493 3389 mt 
(5) s
 639 3281 mt  677 3281 L
4448 3281 mt 4409 3281 L
%%IncludeResource: font Helvetica
/Helvetica /ISOLatin1Encoding 120 FMSR

 538 3325 mt 
(0) s
 639 2980 mt  677 2980 L
4448 2980 mt 4409 2980 L
 438 3024 mt 
(0.1) s
 639 2680 mt  677 2680 L
4448 2680 mt 4409 2680 L
 438 2724 mt 
(0.2) s
 639 2379 mt  677 2379 L
4448 2379 mt 4409 2379 L
 438 2423 mt 
(0.3) s
 639 2079 mt  677 2079 L
4448 2079 mt 4409 2079 L
 438 2123 mt 
(0.4) s
 639 1779 mt  677 1779 L
4448 1779 mt 4409 1779 L
 438 1823 mt 
(0.5) s
 639 1478 mt  677 1478 L
4448 1478 mt 4409 1478 L
 438 1522 mt 
(0.6) s
 639 1178 mt  677 1178 L
4448 1178 mt 4409 1178 L
 438 1222 mt 
(0.7) s
 639  877 mt  677  877 L
4448  877 mt 4409  877 L
 438  921 mt 
(0.8) s
 639  577 mt  677  577 L
4448  577 mt 4409  577 L
 438  621 mt 
(0.9) s
 639  277 mt  677  277 L
4448  277 mt 4409  277 L
 538  321 mt 
(1) s
 639 3281 mt 4448 3281 L
 639  277 mt 4448  277 L
 639 3281 mt  639  277 L
4448 3281 mt 4448  277 L
gs 639 277 3810 3005 rc
0 -15 6 0 0 -15 31 0 0 -15 2 0 0 -15 33 0 
0 -30 2 0 0 -15 16 0 0 -15 18 0 0 -15 7 0 
0 -15 5 0 0 -16 14 0 0 -15 5 0 0 -30 2 0 
0 -45 5 0 0 -15 9 0 0 -30 3 0 0 -16 2 0 
0 -15 3 0 0 -15 5 0 0 -15 10 0 0 -30 18 0 
0 -15 23 0 0 -30 8 0 0 -15 5 0 0 -15 8 0 
0 -16 3 0 0 -15 6 0 0 -15 11 0 0 -15 5 0 
0 -15 14 0 0 -15 153 0 0 -15 94 0 0 -15 573 0 
0 -15 47 0 0 -15 44 0 0 -16 14 0 0 -30 14 0 
0 -15 14 0 0 -15 14 0 0 -15 15 0 0 -30 8 0 
0 -30 15 0 0 -31 7 0 0 -15 16 0 0 -30 8 0 
0 -30 8 0 0 -15 8 0 0 -61 8 0 0 -30 8 0 
0 -45 9 0 0 -45 8 0 0 -61 9 0 0 -45 8 0 
0 -45 9 0 0 -46 9 0 0 -30 8 0 0 -45 9 0 
0 -15 9 0 0 -15 10 0 0 -45 9 0 0 -16 28 0 
0 -15 20 0 0 -15 9 0 0 -30 63 0 0 -15 55 0 
0 -30 12 0 0 -15 11 0 0 -15 49 0 0 -46 39 0 
0 -15 13 0 0 -15 13 0 0 -30 14 0 0 -45 14 0 
0 -76 14 0 0 -60 14 0 0 -46 15 0 0 -45 15 0 
0 -30 15 0 0 -91 16 0 0 -105 15 0 0 -91 16 0 
0 -45 17 0 0 -60 16 0 0 -76 17 0 0 -166 18 0 
0 -60 18 0 0 -76 18 0 0 -60 18 0 0 -76 19 0 
0 -60 20 0 0 -15 20 0 0 -15 41 0 0 -31 1784 3281 184 MP stroke
gr

1926 3606 mt 
(Flow Throughput [BPS]) s
 356 1903 mt  -90 rotate
(CDF) s
90 rotate
2155  182 mt 
(Empirical CDF) s
gs 639 277 3810 3005 rc
DA
/c8 { 0.000000 0.000000 1.000000 sr} bdef
c8
0 -15 43 0 0 -30 12 0 0 -15 23 0 0 -15 17 0 
0 -30 10 0 0 -15 10 0 0 -15 12 0 0 -31 10 0 
0 -15 8 0 0 -15 6 0 0 -15 9 0 0 -15 2 0 
0 -30 6 0 0 -15 2 0 0 -15 4 0 0 -15 3 0 
0 -16 10 0 0 -15 2 0 0 -15 3 0 0 -15 17 0 
0 -30 2 0 0 -15 3 0 0 -15 4 0 0 -15 11 0 
0 -15 5 0 0 -15 7 0 0 -31 5 0 0 -15 21 0 
0 -15 29 0 0 -15 2 0 0 -15 5 0 0 -15 46 0 
0 -15 27 0 0 -15 6 0 0 -15 33 0 0 -16 38 0 
0 -30 6 0 0 -15 43 0 0 -15 10 0 0 -15 13 0 
0 -15 6 0 0 -15 7 0 0 -45 10 0 0 -16 3 0 
0 -15 10 0 0 -30 4 0 0 -30 7 0 0 -15 3 0 
0 -15 4 0 0 -15 3 0 0 -15 4 0 0 -16 17 0 
0 -15 4 0 0 -15 11 0 0 -15 11 0 0 -30 7 0 
0 -15 8 0 0 -15 7 0 0 -30 4 0 0 -15 8 0 
0 -31 4 0 0 -15 7 0 0 -30 4 0 0 -45 4 0 
0 -15 4 0 0 -15 4 0 0 -31 4 0 0 -15 4 0 
0 -30 4 0 0 -15 4 0 0 -15 12 0 0 -15 5 0 
0 -45 8 0 0 -16 8 0 0 -45 9 0 0 -30 8 0 
0 -15 9 0 0 -45 9 0 0 -16 13 0 0 -15 9 0 
0 -15 5 0 0 -15 9 0 0 -15 9 0 0 -30 19 0 
0 -30 4 0 0 -15 10 0 0 -46 15 0 0 -15 10 0 
0 -60 10 0 0 -30 20 0 0 -31 10 0 0 -30 11 0 
0 -15 11 0 0 -15 5 0 0 -15 5 0 0 -30 6 0 
0 -30 5 0 0 -61 6 0 0 -15 6 0 0 -15 11 0 
0 -45 23 0 0 -15 6 0 0 -15 6 0 0 -31 11 0 
0 -15 12 0 0 -15 13 0 0 -15 6 0 0 -15 6 0 
0 -15 13 0 0 -15 6 0 0 -15 7 0 0 -46 6 0 
0 -60 7 0 0 -45 6 0 0 -15 7 0 0 -15 7 0 
0 -31 6 0 0 -30 7 0 0 -30 7 0 0 -15 7 0 
0 -30 7 0 0 -30 21 0 0 -16 7 0 0 -15 8 0 
0 -15 15 0 0 -15 15 0 0 -15 15 0 0 -30 8 0 
0 -30 7 0 0 -31 8 0 0 -15 8 0 0 -15 31 0 
0 -15 21 0 0 -15 20 0 0 -30 22 0 0 -15 59 0 
0 -15 153 0 0 -15 19 0 0 -16 2447 3281 278 MP stroke
gr

c8
DA
0 sg
 622 3324 mt 
( ) s
4432  319 mt 
( ) s
SO
1 sg
0 334 1615 0 0 -334 2774 671 4 MP
PP
-1615 0 0 334 1615 0 0 -334 2774 671 5 MP stroke
4 w
DO
SO
6 w
0 sg
2774  671 mt 4389  671 L
2774  337 mt 4389  337 L
2774  671 mt 2774  337 L
4389  671 mt 4389  337 L
2774  671 mt 4389  671 L
2774  671 mt 2774  337 L
2774  671 mt 4389  671 L
2774  337 mt 4389  337 L
2774  671 mt 2774  337 L
4389  671 mt 4389  337 L
3225  473 mt 
(B = 18 [Large Flow]) s
gs 2774 337 1616 335 rc
347 0 2843 430 2 MP stroke
gr

3225  620 mt 
(B = 500 [Large Flow]) s
gs 2774 337 1616 335 rc
DA
c8
347 0 2843 577 2 MP stroke
SO
gr

c8

end %%Color Dict

eplot
%%EndObject

epage
end

showpage

%%Trailer
%%EOF
