This is BibTeX, Version 0.99d (TeX Live 2013/Debian)
Capacity: max_strings=35307, hash_size=35307, hash_prime=30011
The top-level auxiliary file: projectReport.aux
The style file: unsrt.bst
Database file #1: references.bib
You've used 6 entries,
            1791 wiz_defined-function locations,
            483 strings with 4450 characters,
and the built_in function-call counts, 1487 in all, are:
= -- 146
> -- 49
< -- 2
+ -- 19
- -- 13
* -- 88
:= -- 218
add.period$ -- 18
call.type$ -- 6
change.case$ -- 4
chr.to.int$ -- 0
cite$ -- 6
duplicate$ -- 70
empty$ -- 153
format.name$ -- 13
if$ -- 349
int.to.chr$ -- 0
int.to.str$ -- 6
missing$ -- 4
newline$ -- 31
num.names$ -- 6
pop$ -- 18
preamble$ -- 1
purify$ -- 0
quote$ -- 0
skip$ -- 50
stack$ -- 0
substring$ -- 102
swap$ -- 24
text.length$ -- 2
text.prefix$ -- 0
top$ -- 0
type$ -- 0
warning$ -- 0
while$ -- 16
width$ -- 7
write$ -- 66
