\begin{thebibliography}{1}

\bibitem{rf1}
Curtis Villamizar and Cheng Song.
\newblock High performance tcp in ansnet.
\newblock {\em SIGCOMM Comput. Commun. Rev.}, 24(5):45--60, October 1994.

\bibitem{rf2}
Guido Appenzeller, Isaac Keslassy, and Nick McKeown.
\newblock Sizing router buffers.
\newblock In {\em Proceedings of the 2004 Conference on Applications,
  Technologies, Architectures, and Protocols for Computer Communications},
  SIGCOMM '04, pages 281--292, New York, NY, USA, 2004. ACM.

\bibitem{rf3}
Amogh Dhamdhere and Constantine Dovrolis.
\newblock Open issues in router buffer sizing.
\newblock {\em SIGCOMM Comput. Commun. Rev.}, 36(1):87--92, January 2006.

\bibitem{rf4}
Jitendra Padhye, Victor Firoiu, Don Towsley, and Jim Kurose.
\newblock Modeling tcp throughput: A simple model and its empirical validation.
\newblock In {\em Proceedings of the ACM SIGCOMM '98 Conference on
  Applications, Technologies, Architectures, and Protocols for Computer
  Communication}, SIGCOMM '98, pages 303--314, New York, NY, USA, 1998. ACM.

\bibitem{geniusergroup}
GENI.
\newblock \url{https://groups.google.com/forum/#!forum/geni-users}.

\bibitem{nse}
Networking~Stack Exchange.
\newblock \url{http://networkengineering.stackexchange.com/}.

\end{thebibliography}
